{
  "file": "traits",
  "data": [
    {
      "id": "BEAUTIFUL",
      "name": "Beautiful",
      "disabled": ["UGLY"],
      "cost": 1
    },
    {
      "id": "UGLY",
      "name": "Ugly",
      "disabled": ["BEAUTIFUL"],
      "cost": -1
    },
    {
      "id": "MICROGRAVITY_TOLERANCE",
      "name": "Gravity intolerance",
      "disabled": [],
      "cost": -1
    },
    {
      "id": "STRONG",
      "name": "Strong",
      "disabled": ["WEAK"],
      "cost": 1
    },
    {
      "id": "WEAK",
      "name": "Weak",
      "disabled": ["STRONG"],
      "cost": -1
    },
    {
      "id": "HIGH_EDUCATION",
      "name": "High education",
      "disabled": [],
      "cost": 1
    },
    {
      "id": "OPTIMIST",
      "name": "Optimist",
      "disabled": ["PESSIMIST"],
      "cost": 1
    },
    {
      "id": "PESSIMIST",
      "name": "Pessimist",
      "disabled": ["OPTIMIST"],
      "cost": -1
    }
  ]
}